Chapter 6 Handling Missings | Data Science and Statistical Thinking: With Wild-Caught Data and R
…
What do we learn?

There is a different missingness pattern in each of the years

Year needs to be accounted for in finding good substitute values.

6.5 Shadow matrix

The shadow table is created to mark the location of missings in the original data table. Here, this gets appended to the original data, and then can be used to submet, or colour by different types of missingness.

as_shadow(oceanbuoys)
# A tibble: 736 × 8
   year_NA latitude_NA longitude_NA sea_temp_c_NA air_temp_c_NA humidity_NA
   <fct>   <fct>       <fct>        <fct>         <fct>         <fct>      
 1 !NA     !NA         !NA          !NA           !NA           !NA        
 2 !NA     !NA         !NA          !NA           !NA           !NA        
 3 !NA     !NA         !NA          !NA           !NA           !NA        
 4 !NA     !NA         !NA          !NA           !NA           !NA        
 5 !NA     !NA         !NA          !NA           !NA           !NA        
 6 !NA     !NA         !NA          !NA           !NA           !NA        
 7 !NA     !NA         !NA          !NA           !NA           !NA        
 8 !NA     !NA         !NA          !NA           !NA           !NA        
 9 !NA     !NA         !NA          !NA           !NA           !NA        
10 !NA     !NA         !NA          !NA           !NA           !NA        
# ℹ 726 more rows
# ℹ 2 more variables: wind_ew_NA <fct>, wind_ns_NA <fct>
tao_shadow <- bind_shadow(oceanbuoys)
tao_shadow
# A tibble: 736 × 16
    year latitude longitude sea_temp_c air_temp_c humidity wind_ew wind_ns
   <dbl>    <dbl>     <dbl>      <dbl>      <dbl>    <dbl>   <dbl>   <dbl>
 1  1997        0      -110       27.6       27.1     79.6   -6.40    5.40
 2  1997        0      -110       27.5       27.0     75.8   -5.30    5.30
 3  1997        0      -110       27.6       27       76.5   -5.10    4.5 
 4  1997        0      -110       27.6       26.9     76.2   -4.90    2.5 
 5  1997        0      -110       27.6       26.8     76.4   -3.5     4.10
 6  1997        0      -110       27.8       26.9     76.7   -4.40    1.60
 7  1997        0      -110       28.0       27.0     76.5   -2       3.5 
 8  1997        0      -110       28.0       27.1     78.3   -3.70    4.5 
 9  1997        0      -110       28.0       27.2     78.6   -4.20    5   
10  1997        0      -110       28.0       27.2     76.9   -3.60    3.5 
# ℹ 726 more rows
# ℹ 8 more variables: year_NA <fct>, latitude_NA <fct>, longitude_NA <fct>,
#   sea_temp_c_NA <fct>, air_temp_c_NA <fct>, humidity_NA <fct>,
#   wind_ew_NA <fct>, wind_ns_NA <fct>
…
