Chapter 16 Model fitting and optimisation | Data Science and Statistical Thinking: With Wild-Caught Data and R
…
16.4.1 Try a linear fit

CO2.spo
# A tibble: 1,271 × 10
   date       time      day decdate     n   flg   co2   lat   lon stn  
   <date>     <time>  <dbl>   <dbl> <dbl> <dbl> <dbl> <dbl> <dbl> <chr>
 1 1957-06-17 00:00  20988    1957.     1     0  313.   -90     0 spo  
 2 1957-12-22 00:00  21176    1958.     1     0  314.   -90     0 spo  
 3 1957-12-23 00:00  21177    1958.     1     0  314.   -90     0 spo  
 4 1958-03-21 00:00  21265    1958.     1     0  314.   -90     0 spo  
 5 1958-03-22 06:30  21266.   1958.     2     0  314.   -90     0 spo  
 6 1958-06-20 00:00  21356    1958.     1     0  315.   -90     0 spo  
 7 1958-09-27 00:00  21455    1959.     1     0  315.   -90     0 spo  
 8 1958-09-28 00:00  21456    1959.     1     0  315.   -90     0 spo  
 9 1959-01-08 00:00  21558    1959.     1     0  315.   -90     0 spo  
10 1959-01-12 00:00  21562    1959.     1     0  315.   -90     0 spo  
# ℹ 1,261 more rows
…
