Chapter 8 Text data and strings | Data Science and Statistical Thinking: With Wild-Caught Data and R
…
# install.packages("tidytext")
library(tidyverse)
library(tidytext)
library(textdata)
# The tm package is needed because the book has numbers 
# in the text, that need to be removed, and the
# tidytext package doesn't have a function to do that
# install.packages("tm")
library(tm)
# install.packages("gutenbergr")
library(gutenbergr)
darwin1 <- gutenberg_download(1228)
darwin1
# A tibble: 16,202 × 2
   gutenberg_id text                                                            
          <int> <chr>                                                           
 1         1228 "Click on any of the filenumbers below to quickly view each ebo…
 2         1228 ""                                                              
 3         1228 "1228    1859, First Edition"                                   
 4         1228 "22764   1860, Second Edition"                                  
 5         1228 "2009    1872, Sixth Edition, considered the definitive edition…
 6         1228 ""                                                              
 7         1228 ""                                                              
 8         1228 ""                                                              
 9         1228 ""                                                              
10         1228 "On"                                                            
# ℹ 16,192 more rows
…
\(tf_{word} = \frac{Number~of~times~word~t~appears~in~a~document}{Total~number~of~words~in~the~document}\)

\(idf_{word} = log \frac{number~of~documents}{number~of~documents~word~appears~in}\)

\(td-idf = tf\times idf\)

darwin1_words <- darwin1_words %>%
  mutate(edition = "1")
darwin6_words <- darwin6_words %>%
  mutate(edition = "6")
darwin <- bind_rows(darwin1_words, darwin6_words)
darwin <- darwin %>% bind_tf_idf(word, edition, n)
darwin %>% arrange(desc(tf_idf))
# A tibble: 15,044 × 7
   word             n   len edition       tf   idf   tf_idf
   <chr>        <int> <int> <chr>      <dbl> <dbl>    <dbl>
 1 mivart          28     6 6       0.000360 0.693 0.000250
 2 prof            28     4 6       0.000360 0.693 0.000250
 3 cambrian        27     8 6       0.000347 0.693 0.000241
 4 illegitimate    21    12 6       0.000270 0.693 0.000187
 5 lamellæ         21     7 6       0.000270 0.693 0.000187
 6 pedicellariæ    19    12 6       0.000244 0.693 0.000169
 7 dimorphic       18     9 6       0.000232 0.693 0.000160
 8 fittest         17     7 6       0.000219 0.693 0.000152
 9 orchids         17     7 6       0.000219 0.693 0.000152
10 fritz           15     5 6       0.000193 0.693 0.000134
# ℹ 15,034 more rows
…
8.10.1 Lexicons

The tidytext package has a lexicon of sentiments, based on four major sources: AFINN, bing, Loughran, nrc (Mohammad and Turney 2013)

XXX Cite these lexicon sources

sentiments %>% count(sentiment, sort=TRUE)
# A tibble: 2 × 2
  sentiment     n
  <chr>     <int>
1 negative   4781
2 positive   2005

sentiments
# A tibble: 6,786 × 2
   word        sentiment
   <chr>       <chr>    
 1 2-faces     negative 
 2 abnormal    negative 
 3 abolish     negative 
 4 abominable  negative 
 5 abominably  negative 
 6 abominate   negative 
 7 abomination negative 
 8 abort       negative 
 9 aborted     negative 
10 aborts      negative 
# ℹ 6,776 more rows
…
stolen

smile

8.10.1.1 Different sources

The nrc lexicon categorizes words in a binary fashion (“yes”/“no”) into categories of positive, negative, anger, anticipation, disgust, fear, joy, sadness, surprise, and trust.

The bing lexicon categorizes words in a binary fashion into positive and negative categories.

The AFINN lexicon assigns words with a score that runs between -5 and 5, with negative scores indicating negative sentiment and positive scores indicating positive sentiment.

get_sentiments("afinn")
# A tibble: 2,477 × 2
   word       value
   <chr>      <dbl>
 1 abandon       -2
 2 abandoned     -2
 3 abandons      -2
 4 abducted      -2
 5 abduction     -2
 6 abductions    -2
 7 abhor         -3
 8 abhorred      -3
 9 abhorrent     -3
10 abhors        -3
# ℹ 2,467 more rows
…
8.10.4 Example: Simpsons

Data from the popular animated TV series, The Simpsons, has been made available on kaggle. This analysis builds on Maria Prokofieva’s R Ladies workshop.

simpsons_script_lines.csv: Contains the text spoken during each episode (including details about which character said it and where)

simpsons_characters.csv: Contains character names and a character id

scripts <- read_csv("data/simpsons_script_lines.csv")
chs <- read_csv("data/simpsons_characters.csv")
sc <- left_join(scripts, chs, by = c("character_id" = "id") )
sc %>% count(name, sort=TRUE)
# A tibble: 6,722 × 2
   name                    n
   <chr>               <int>
 1 Homer Simpson       30104
 2 <NA>                17522
 3 Marge Simpson       14265
 4 Bart Simpson        13967
 5 Lisa Simpson        11641
 6 C. Montgomery Burns  3207
 7 Moe Szyslak          2863
 8 Seymour Skinner      2443
 9 Ned Flanders         2145
10 Grampa Simpson       1957
# ℹ 6,712 more rows
…
sc_word <- sc %>%
  unnest_tokens(word, normalized_text) %>%
  filter(!word %in% stop_words$word) %>%
  count(name, word) %>%
  ungroup() %>%
  filter(!is.na(word))
sc_s <- sc_word %>% 
  inner_join(get_sentiments("afinn"), by = "word")

8.10.4.3 Examine characters

sc_s %>% group_by(name) %>% 
  summarise(m=mean(value)) %>% 
  arrange(desc(m))
# A tibble: 3,717 × 2
   name                    m
   <chr>               <dbl>
 1 2nd Sportscaster        4
 2 4-h Judge               4
 3 7-Year-Old Brockman     4
 4 ALEPPO                  4
 5 APU+                    4
 6 All Kids                4
 7 Applicants              4
 8 Australian              4
 9 Bill James              4
10 Canadian Player         4
# ℹ 3,707 more rows
…
8.10.5 Example: AFL Finals tweets

The rtweet package allows you to pull tweets from the archive. It gives only the last 6-9 days worth of data. Youneed ot have a twitter account, and you need to create an app (its really basic) in order to pull twitter data. The instructions that come from this package (https://rtweet.info) are pretty simple to follow.

Given that it is AFL final week, I thought it might be interesting to look at tweets that use the hashtag “#AFLFinals”. Once you have a developer account, this is as simple as

afl <- search_tweets(
  "#AFLFinals", n = 20000, include_rts = FALSE
)

I have provide the data collected in the last week. You can load it with

load("data/afl_twitter.rda")
afl
# A tibble: 9,900 × 88
   user_id    status_id           created_at          screen_name text    source
 * <chr>      <chr>               <dttm>              <chr>       <chr>   <chr> 
 1 1243059427 1040204697489952768 2018-09-13 11:45:00 JimWilsonTV @GWSGI… Twitt…
 2 1243059427 1038592176664371200 2018-09-09 00:57:25 JimWilsonTV No twi… Twitt…
 3 1243059427 1038001080766881792 2018-09-07 09:48:37 JimWilsonTV Thanks… Twitt…
 4 1243059427 1038237280505192450 2018-09-08 01:27:11 JimWilsonTV Can’t … Twitt…
 5 1243059427 1039126655799676928 2018-09-10 12:21:15 JimWilsonTV On ya … Twitt…
 6 1243059427 1038395893819404288 2018-09-08 11:57:28 JimWilsonTV Great … Twitt…
 7 1243059427 1037460744176984065 2018-09-05 22:01:31 JimWilsonTV @NTheo… Twitt…
 8 1243059427 1037197326916485126 2018-09-05 04:34:47 JimWilsonTV 16 yrs… Twitt…
 9 3300829896 1040203927587713024 2018-09-13 11:41:57 AlexWard64  I've g… Twitt…
10 30342972   1040201047875117056 2018-09-13 11:30:30 HAWKSHEROES I'm on… Twitt…
# ℹ 9,890 more rows
# ℹ 82 more variables: display_text_width <dbl>, reply_to_status_id <chr>,
#   reply_to_user_id <chr>, reply_to_screen_name <chr>, is_quote <lgl>,
#   is_retweet <lgl>, favorite_count <int>, retweet_count <int>,
#   hashtags <list>, symbols <list>, urls_url <list>, urls_t.co <list>,
#   urls_expanded_url <list>, media_url <list>, media_t.co <list>,
#   media_expanded_url <list>, media_type <list>, ext_media_url <list>, …
…
8.10.5.2 Analysis

We need to break the text of each tweet into words, tag the words with sentiments, and make a cumulative score for each tweet.

library(lubridate)
afl_sentiment <- afl %>% 
  group_by(status_id) %>%
  unnest_tokens(word, text) %>%
  inner_join(get_sentiments("afinn")) %>%
  summarise(sentiment = mean(value, na.rm=T)) 
afl_sentiment <- afl %>% select(status_id, screen_name, created_at, text) %>% 
  left_join(afl_sentiment, by="status_id")
afl_sentiment %>% group_by(screen_name) %>%
  summarise(s = mean(sentiment, na.rm=TRUE)) %>% arrange(desc(s))
# A tibble: 3,093 × 2
   screen_name         s
   <chr>           <dbl>
 1 DanielGarb          5
 2 Nat_Edwards         5
 3 bradfogarty95       5
 4 ehhmaah             5
 5 73simmo             4
 6 AaronSterns         4
 7 Beauy420            4
 8 ChrisAWalker14      4
 9 Chrisdapha          4
10 Christo17459133     4
# ℹ 3,083 more rows
…
