Chapter 4 Tidying Common Data Formats | Data Science and Statistical Thinking: With Wild-Caught Data and R
…
4.2.2 Long format

It can also be useful - for the process of data analysis - to arrange data into long tidy form, where each value is uniquely identified.

grad %>% gather(variable, value, -subject, -Inst)
# A tibble: 5,768 × 4
   subject   Inst                                     variable  value
   <chr>     <chr>                                    <chr>     <dbl>
 1 economics ARIZONA STATE UNIVERSITY                 AvNumPubs  0.9 
 2 economics AUBURN UNIVERSITY                        AvNumPubs  0.79
 3 economics BOSTON COLLEGE                           AvNumPubs  0.51
 4 economics BOSTON UNIVERSITY                        AvNumPubs  0.49
 5 economics BRANDEIS UNIVERSITY                      AvNumPubs  0.3 
 6 economics BROWN UNIVERSITY                         AvNumPubs  0.84
 7 economics CALIFORNIA INSTITUTE OF TECHNOLOGY       AvNumPubs  0.99
 8 economics CARNEGIE MELLON UNIVERSITY               AvNumPubs  0.43
 9 economics CITY UNIVERSITY OF NEW YORK GRAD. CENTER AvNumPubs  0.35
10 economics CLAREMONT GRADUATE UNIVERSITY            AvNumPubs  0.47
# ℹ 5,758 more rows
…
4.3.2 Melbourne weather

What are the variables? Observations?

😱

melbtemp <- read_fwf("data/ASN00086282.dly", 
   col_positions=fwf_widths(c(11, 4, 2, 4, 
        rep(c(5, 1, 1, 1), 31))))
melbtemp %>% select(X1, X2, X3, X4, X5, X9, 
          X13, X17, X21, X25, X29, X33)
# A tibble: 2,267 × 12
   X1             X2 X3    X4       X5    X9   X13   X17   X21   X25   X29   X33
   <chr>       <dbl> <chr> <chr> <dbl> <dbl> <dbl> <dbl> <dbl> <dbl> <dbl> <dbl>
 1 ASN00086282  1970 07    TMAX    141   124   113   123   148   149   139   153
 2 ASN00086282  1970 07    TMIN     80    63    36    57    69    47    84    78
 3 ASN00086282  1970 07    PRCP      3    30     0     0    36     3     0     0
 4 ASN00086282  1970 08    TMAX    145   128   150   122   109   112   116   142
 5 ASN00086282  1970 08    TMIN     50    61    75    67    41    51    48    -7
 6 ASN00086282  1970 08    PRCP      0    66     0    53    13     3     8     0
 7 ASN00086282  1970 09    TMAX    168   168   162   162   162   150   184   179
 8 ASN00086282  1970 09    TMIN     19    29    62    81    81    55    73    97
 9 ASN00086282  1970 09    PRCP      0     0     0     0     3     5     0    38
10 ASN00086282  1970 10    TMAX    189   194   204   267   256   228   237   144
# ℹ 2,257 more rows

4.3.3 TB incidence

This is current tuberculosis data taken from WHO, the case notifications table.

🤧

tb <- read_csv("data/TB_notifications_2018-03-18.csv") %>%
  select(country, year, starts_with("new_sp_")) %>%
  filter(year>1996, year<2012)
tb %>% top_n(20)
# A tibble: 26 × 22
   country     year new_sp_m04 new_sp_m514 new_sp_m014 new_sp_m1524 new_sp_m2534
   <chr>      <dbl>      <dbl>       <dbl>       <dbl>        <dbl>        <dbl>
 1 Argentina   2008         11          58          69          633          611
 2 Argentina   2009          8          36          44          546          483
 3 Argentina   2011         50          93         143          664          657
 4 Bosnia an…  2006          0           0           0           40           58
 5 Brazil      2010        130         168         298         4405         6381
 6 Central A…  2010         23          55          78          379          633
 7 Central A…  2011         14          56          70          362          576
 8 Egypt       2008          0          13          13          581          640
 9 Greece      2007          0           1           1           21           22
10 Italy       2005          7           1           8           93          191
# ℹ 16 more rows
# ℹ 15 more variables: new_sp_m3544 <dbl>, new_sp_m4554 <dbl>,
#   new_sp_m5564 <dbl>, new_sp_m65 <dbl>, new_sp_mu <dbl>, new_sp_f04 <dbl>,
#   new_sp_f514 <dbl>, new_sp_f014 <dbl>, new_sp_f1524 <dbl>,
#   new_sp_f2534 <dbl>, new_sp_f3544 <dbl>, new_sp_f4554 <dbl>,
#   new_sp_f5564 <dbl>, new_sp_f65 <dbl>, new_sp_fu <dbl>
…
4.7 Tidying genes data

genes
# A tibble: 3 × 12
  id     `WI-6.R1` `WI-6.R2` `WI-6.R4` `WM-6.R1` `WM-6.R2` `WI-12.R1` `WI-12.R2`
  <chr>      <dbl>     <dbl>     <dbl>     <dbl>     <dbl>      <dbl>      <dbl>
1 Gene 1      2.18     2.20       4.20     2.63       5.06       4.54       5.53
2 Gene 2      1.46     0.585      1.86     0.515      2.88       1.36       2.96
3 Gene 3      2.03     0.870      3.28     0.533      4.63       2.18       5.56
# ℹ 4 more variables: `WI-12.R4` <dbl>, `WM-12.R1` <dbl>, `WM-12.R2` <dbl>,
#   `WM-12.R4` <dbl>
genes_long <- genes %>% 
  gather(variable, expr, -id) 
genes_long
# A tibble: 33 × 3
   id     variable  expr
   <chr>  <chr>    <dbl>
 1 Gene 1 WI-6.R1  2.18 
 2 Gene 2 WI-6.R1  1.46 
 3 Gene 3 WI-6.R1  2.03 
 4 Gene 1 WI-6.R2  2.20 
 5 Gene 2 WI-6.R2  0.585
 6 Gene 3 WI-6.R2  0.870
 7 Gene 1 WI-6.R4  4.20 
 8 Gene 2 WI-6.R4  1.86 
 9 Gene 3 WI-6.R4  3.28 
10 Gene 1 WM-6.R1  2.63 
# ℹ 23 more rows

In this example, we identified the columns as containing expression levels of a gene during different experimental conditions (variables). We have gathered these variables into a single column, with the expression levels in a corresponding column. The -id argument to gather() indicates that we do not want the id column to be gathered; this has the effect of repeating the 3 values of gene for each variable.

4.7.1 Separate columns

The variables in the previous example are a cryptic combination of treatment, timepoint, and replicate. Using separate(), we can separate this information out into a tidy (and much more human friendly) representation of the experimental conditions:

genes_long %>%
  separate(variable, c("trt", "leftover"), "-") 
# A tibble: 33 × 4
   id     trt   leftover  expr
   <chr>  <chr> <chr>    <dbl>
 1 Gene 1 WI    6.R1     2.18 
 2 Gene 2 WI    6.R1     1.46 
 3 Gene 3 WI    6.R1     2.03 
 4 Gene 1 WI    6.R2     2.20 
 5 Gene 2 WI    6.R2     0.585
 6 Gene 3 WI    6.R2     0.870
 7 Gene 1 WI    6.R4     4.20 
 8 Gene 2 WI    6.R4     1.86 
 9 Gene 3 WI    6.R4     3.28 
10 Gene 1 WM    6.R1     2.63 
# ℹ 23 more rows

First, we separate the treatment from the rest of the information.

Next, we separate the remainder into timepoint and replicate variables.

genes_long %>%
  separate(variable, c("trt", "leftover"), "-") %>%
  separate(leftover, c("time", "rep"), "\\.") 
# A tibble: 33 × 5
   id     trt   time  rep    expr
   <chr>  <chr> <chr> <chr> <dbl>
 1 Gene 1 WI    6     R1    2.18 
 2 Gene 2 WI    6     R1    1.46 
 3 Gene 3 WI    6     R1    2.03 
 4 Gene 1 WI    6     R2    2.20 
 5 Gene 2 WI    6     R2    0.585
 6 Gene 3 WI    6     R2    0.870
 7 Gene 1 WI    6     R4    4.20 
 8 Gene 2 WI    6     R4    1.86 
 9 Gene 3 WI    6     R4    3.28 
10 Gene 1 WM    6     R1    2.63 
# ℹ 23 more rows
…
4.9 Tidying Melbourne weather

This is seriously messy!

Read the data first, just the columns that we need. The data is in fixed column width format, which means a certain number of columns are designated for the particular records, eg columns 1-11 contains the station id, columns 12-15 contain the year, …

melbtemp <- read_fwf("data/ASN00086282.dly", 
   col_positions=fwf_widths(c(11, 4, 2, 4, 
        rep(c(5, 1, 1, 1), 31)), 
        col_names = c("station", "year", "month",
              "variable", paste0("X", 5:128))))
melbtemp
# A tibble: 2,267 × 128
   station   year month variable    X5 X6    X7    X8       X9 X10   X11   X12  
   <chr>    <dbl> <chr> <chr>    <dbl> <chr> <chr> <chr> <dbl> <chr> <chr> <chr>
 1 ASN0008…  1970 07    TMAX       141 <NA>  <NA>  a       124 <NA>  <NA>  a    
 2 ASN0008…  1970 07    TMIN        80 <NA>  <NA>  a        63 <NA>  <NA>  a    
 3 ASN0008…  1970 07    PRCP         3 <NA>  <NA>  a        30 <NA>  <NA>  a    
 4 ASN0008…  1970 08    TMAX       145 <NA>  <NA>  a       128 <NA>  <NA>  a    
 5 ASN0008…  1970 08    TMIN        50 <NA>  <NA>  a        61 <NA>  <NA>  a    
 6 ASN0008…  1970 08    PRCP         0 <NA>  <NA>  a        66 <NA>  <NA>  a    
 7 ASN0008…  1970 09    TMAX       168 <NA>  <NA>  a       168 <NA>  <NA>  a    
 8 ASN0008…  1970 09    TMIN        19 <NA>  <NA>  a        29 <NA>  <NA>  a    
 9 ASN0008…  1970 09    PRCP         0 <NA>  <NA>  a         0 <NA>  <NA>  a    
10 ASN0008…  1970 10    TMAX       189 <NA>  <NA>  a       194 <NA>  <NA>  a    
# ℹ 2,257 more rows
# ℹ 116 more variables: X13 <dbl>, X14 <chr>, X15 <lgl>, X16 <chr>, X17 <dbl>,
#   X18 <chr>, X19 <lgl>, X20 <chr>, X21 <dbl>, X22 <chr>, X23 <lgl>,
#   X24 <chr>, X25 <dbl>, X26 <chr>, X27 <lgl>, X28 <chr>, X29 <dbl>,
#   X30 <chr>, X31 <lgl>, X32 <chr>, X33 <dbl>, X34 <chr>, X35 <lgl>,
#   X36 <chr>, X37 <dbl>, X38 <chr>, X39 <lgl>, X40 <chr>, X41 <dbl>,
#   X42 <chr>, X43 <lgl>, X44 <chr>, X45 <dbl>, X46 <chr>, X47 <lgl>, …

X5, X9, … contain the temperature and precipitation records. The remaining columns have data quality flags. We want to ignore the data quality flags for now, and select every fourth variable.

4.9.1 Sometime easier to index select

[...] allows indexing of elements of a vector, or collection of numbers

c(1:4, seq(5,128,4)) means collect items 1 through 4, and then every 4th item until the 128’th

melbtemp <- melbtemp[,c(1:4, seq(5, 128, 4))] 
melbtemp
# A tibble: 2,267 × 35
   station   year month variable    X5    X9   X13   X17   X21   X25   X29   X33
   <chr>    <dbl> <chr> <chr>    <dbl> <dbl> <dbl> <dbl> <dbl> <dbl> <dbl> <dbl>
 1 ASN0008…  1970 07    TMAX       141   124   113   123   148   149   139   153
 2 ASN0008…  1970 07    TMIN        80    63    36    57    69    47    84    78
 3 ASN0008…  1970 07    PRCP         3    30     0     0    36     3     0     0
 4 ASN0008…  1970 08    TMAX       145   128   150   122   109   112   116   142
 5 ASN0008…  1970 08    TMIN        50    61    75    67    41    51    48    -7
 6 ASN0008…  1970 08    PRCP         0    66     0    53    13     3     8     0
 7 ASN0008…  1970 09    TMAX       168   168   162   162   162   150   184   179
 8 ASN0008…  1970 09    TMIN        19    29    62    81    81    55    73    97
 9 ASN0008…  1970 09    PRCP         0     0     0     0     3     5     0    38
10 ASN0008…  1970 10    TMAX       189   194   204   267   256   228   237   144
# ℹ 2,257 more rows
# ℹ 23 more variables: X37 <dbl>, X41 <dbl>, X45 <dbl>, X49 <dbl>, X53 <dbl>,
#   X57 <dbl>, X61 <dbl>, X65 <dbl>, X69 <dbl>, X73 <dbl>, X77 <dbl>,
#   X81 <dbl>, X85 <dbl>, X89 <dbl>, X93 <dbl>, X97 <dbl>, X101 <dbl>,
#   X105 <dbl>, X109 <dbl>, X113 <dbl>, X117 <dbl>, X121 <dbl>, X125 <dbl>

4.9.2 Make long form

melbtemp_long <- melbtemp %>% 
  gather(day, value, X5:X125)
melbtemp_long
# A tibble: 70,277 × 6
   station      year month variable day   value
   <chr>       <dbl> <chr> <chr>    <chr> <dbl>
 1 ASN00086282  1970 07    TMAX     X5      141
 2 ASN00086282  1970 07    TMIN     X5       80
 3 ASN00086282  1970 07    PRCP     X5        3
 4 ASN00086282  1970 08    TMAX     X5      145
 5 ASN00086282  1970 08    TMIN     X5       50
 6 ASN00086282  1970 08    PRCP     X5        0
 7 ASN00086282  1970 09    TMAX     X5      168
 8 ASN00086282  1970 09    TMIN     X5       19
 9 ASN00086282  1970 09    PRCP     X5        0
10 ASN00086282  1970 10    TMAX     X5      189
# ℹ 70,267 more rows
…
This is tough! From the web site Department of Infrastructure, Regional Development and Cities download the latest “Airport Traffic Data 1985–86 to …”. It is reasonably small.

Extract the “Airport Passengers” table into R with this code

library(readxl)
passengers <- read_xlsx(here::here("data", "WebAirport_FY_1986-2019.xlsx"), sheet=3, skip=6)
passengers
# A tibble: 3,468 × 14
   ...1       AIRPORT Year  Rank  INBOUND...5 OUTBOUND...6 TOTAL...7 INBOUND...8
   <chr>      <chr>   <chr> <chr>       <dbl>        <dbl>     <dbl>       <dbl>
 1 TOTAL AUS… TOTAL … 1985… -        14543928     14543928  29087856     2767413
 2 TOTAL AUS… TOTAL … 1986… -        15001877     15001877  30003754     3154920
 3 TOTAL AUS… TOTAL … 1987… -        16181355     16181355  32362710     3692976
 4 TOTAL AUS… TOTAL … 1988… -        16497749     16497826  32995575     4022634
 5 TOTAL AUS… TOTAL … 1989… -        11861519     11861644  23723163     4175315
 6 TOTAL AUS… TOTAL … 1990… -        16536767     16536767  33073534     4257165
 7 TOTAL AUS… TOTAL … 1991… -        20525193     20525193  41050386     4539042
 8 TOTAL AUS… TOTAL … 1992… -        20923187     20923187  41846374     4902693
 9 TOTAL AUS… TOTAL … 1993… -        22668912     22668912  45337824     5340017
10 TOTAL AUS… TOTAL … 1994… -        25091352     25091227  50182579     5830311
# ℹ 3,458 more rows
# ℹ 6 more variables: OUTBOUND...9 <dbl>, TOTAL...10 <dbl>, INBOUND...11 <dbl>,
#   OUTBOUND...12 <dbl>, TOTAL...13 <dbl>, ...14 <lgl>
…
